<?xml version="1.0" encoding="UTF-8"?>
<svg width="190px" height="64px" viewBox="0 0 190 64" version="1.1" xmlns="http://www.w3.org/2000/svg" xmlns:xlink="http://www.w3.org/1999/xlink">
    <!-- Generator: Sketch 47.1 (45422) - http://www.bohemiancoding.com/sketch -->
    <title>Avans_logo_internationaal_RGB</title>
    <desc>Created with Sketch.</desc>
    <defs>
        <polygon id="path-1" points="6.49653785e-15 29.8874049 6.49653785e-15 0.158465753 37.5203626 0.158465753 75.0407251 0.158465753 75.0407251 29.8874049"></polygon>
    </defs>
    <g id="Symbols" stroke="none" stroke-width="1" fill="none" fill-rule="evenodd">
        <g id="IntMenuTop-XL-Copy" transform="translate(-1338.000000, -34.000000)">
            <g id="Avans_logo_internationaal_RGB" transform="translate(1338.000000, 34.000000)">
                <g id="Group-4">
                    <mask id="mask-2" fill="white">
                        <use xlink:href="#path-1"></use>
                    </mask>
                    <g id="Clip-2"></g>
                    <path d="M6.49034722,7.66312329 C8.42883102,6.9549589 11.2662963,5.83145205 14.2040394,5.8419726 C17.1420023,5.85249315 18.4997106,6.69150685 17.9673148,9.2140274 C17.434919,11.7365479 14.8870718,23.9855342 14.8228588,24.2954521 C14.3526968,24.6393425 8.09105324,26.0133699 8.19265046,21.814137 C8.29336806,17.6642192 11.5253472,16.098411 13.4528356,15.2587397 C14.8298958,14.6586301 14.9330324,11.465863 15.1582176,10.5873973 C8.49216435,11.500274 1.43753472,13.922411 0.209571759,20.6630137 C-1.0183912,27.4029589 3.23417824,29.858411 10.7226852,29.8871233 C18.2111921,29.9160548 22.2053704,27.705863 22.2053704,27.705863 C22.2053704,27.705863 25.0415162,14.1547397 25.7320255,10.7982466 C26.4223148,7.44284932 26.0660648,4.74169863 24.6060995,2.95232877 C23.1509722,1.17106849 20.5501273,0.158465753 17.1512384,0.158465753 C11.9684606,0.158465753 8.54956019,1.3970411 7.84387731,1.69052055 C5.6496412,2.63671233 6.12376157,5.50838356 6.49034722,7.66312329 Z" id="Fill-1" fill="#C6002A" mask="url(#mask-2)"></path>
                    <path d="M56.8128588,1.69052055 C54.6186227,2.63671233 55.092963,5.50838356 55.4595486,7.66312329 L55.4652662,7.67189041 C57.3982523,6.9549589 60.2354977,5.83145205 63.1734606,5.8419726 C66.1112037,5.85249315 67.468912,6.69150685 66.9365162,9.2140274 C66.4041204,11.7365479 63.8562731,23.9855342 63.7920602,24.2954521 C63.3221181,24.6393425 57.0602546,26.0133699 57.1620718,21.814137 C57.2627894,17.6642192 60.4945486,16.098411 62.422037,15.2587397 C63.7990972,14.6586301 63.9022338,11.465863 64.127419,10.5873973 C57.4613657,11.500274 50.406956,13.922411 49.1789931,20.6630137 C47.9508102,27.4029589 52.2033796,29.858411 59.6921065,29.8871233 C67.1803935,29.9160548 71.1747917,27.705863 71.1747917,27.705863 C71.1747917,27.705863 74.0109375,14.1547397 74.7012269,10.7982466 C75.3915162,7.44284932 75.0354861,4.74169863 73.575081,2.95232877 C72.1203935,1.17106849 69.5191088,0.158465753 66.1206597,0.158465753 C60.937662,0.158465753 57.5189815,1.3970411 56.8128588,1.69052055" id="Fill-3" fill="#C6002A" mask="url(#mask-2)"></path>
                </g>
                <path d="M40.1267245,27.9524384 C40.9320255,26.3754521 54.0754514,0.690191781 54.0754514,0.690191781 C54.0754514,0.690191781 49.7892361,0.690191781 47.7324421,0.690191781 C45.6754282,0.690191781 44.5719329,3.08208219 43.8242477,4.77435616 C43.1676042,6.25972603 40.6833102,11.5125479 37.4456134,19.0608219 C37.5428125,17.7374247 37.0372454,5.97917808 36.9136574,3.40010959 C36.8342708,1.74772603 35.4466551,0.690191781 32.9713773,0.690191781 C31.8524884,0.690191781 27.9372569,0.690191781 27.9372569,0.690191781 L31.1210764,29.4579726 C31.1210764,29.4579726 36.9743519,29.4516164 37.3796412,29.4579726 C37.7853704,29.4641096 39.3212037,29.5294247 40.1267245,27.9524384" id="Fill-5" fill="#C6002A"></path>
                <path d="M91.4581713,29.7084932 C91.4581713,29.7084932 96.9776273,29.7084932 97.9346644,29.7084932 C99.6714931,21.0244384 102.157766,9.98772603 102.216262,7.69972603 C102.298067,4.47912329 100.354965,0.242410959 91.4410185,0.242410959 C85.058206,0.242410959 80.030463,2.43265753 80.030463,2.43265753 L75.0365856,26.594411 C75.0365856,26.594411 80.4401505,24.2312329 81.8493171,23.6072329 C83.8548727,22.7180274 84.2808333,20.8670685 84.76375,18.6993973 C85.2464468,16.5319452 87.2726736,6.77435616 87.3340278,6.47539726 C88.1325116,6.23057534 89.5900579,5.96230137 90.8760764,5.96230137 C92.9632176,5.96230137 94.0757292,6.88109589 94.0669329,8.43419178 C94.0631944,9.12657534 91.3680093,22.2603836 90.3177315,27.4983014 C90.3177315,27.4983014 89.7123264,29.7939726 91.4581713,29.7084932" id="Fill-6" fill="#C6002A"></path>
                <path d="M122.803553,4.71408219 L124.144988,2.47715068 C124.144988,2.47715068 121.373715,0.169424658 116.265266,0.169424658 C108.999306,0.169424658 104.97522,5.39857534 104.97522,10.317589 C104.97522,16.8613699 112.275706,16.4054795 112.275706,19.9980274 C112.275706,21.7387397 110.788032,24.6454795 105.692778,23.1842192 C103.928241,22.6779178 102.903912,23.5274521 102.501921,24.1492603 C102.156227,24.684274 100.428854,27.5726027 100.428854,27.5726027 C100.428854,27.5726027 103.419595,29.8871233 108.504294,29.8871233 C117.084861,29.8871233 121.225058,24.3009315 121.225058,19.1129863 C121.225058,12.7294247 113.412847,12.8151233 113.412847,9.33063014 C113.412847,7.43167123 115.204873,5.35408219 118.556701,6.19616438 C119.444907,6.41928767 121.240231,7.17238356 122.803553,4.71408219" id="Fill-7" fill="#C6002A"></path>
                <path d="M93.1789468,44.6649863 C92.50625,45.0075616 91.3548148,45.2460274 90.0540625,45.2460274 C88.1848495,45.2460274 87.3177546,44.5606575 87.3177546,43.264 C87.3177546,43.0406575 87.347662,42.7721644 87.4074769,42.5041096 L88.5437384,37.0645479 L90.3680903,37.0645479 L89.2017014,42.6084384 C89.171794,42.7721644 89.1568403,42.9214247 89.1568403,43.0704658 C89.1568403,43.5921096 89.4110532,43.9943014 90.2933218,43.9943014 C90.8017477,43.9943014 91.2202315,43.92 91.5342593,43.7856438 L92.9396875,37.0645479 L94.7490856,37.0645479 L93.1789468,44.6649863" id="Fill-8" fill="#C6002A"></path>
                <path d="M102.584826,39.4787945 L101.403264,45.0972055 L99.5793519,45.0972055 L100.775428,39.404274 C100.805336,39.2703562 100.820289,39.136 100.820289,39.001863 C100.820289,38.4802192 100.491308,38.0631233 99.5943056,38.0631233 C99.115787,38.0631233 98.6671759,38.1376438 98.308287,38.2717808 L96.8879051,45.0972055 L95.0635532,45.0972055 L96.6336921,37.4967671 C97.4411921,37.1539726 98.5924074,36.915726 99.8634722,36.915726 C101.867049,36.915726 102.644421,37.750137 102.644421,38.8679452 C102.644421,39.0616986 102.629688,39.2703562 102.584826,39.4787945" id="Fill-9" fill="#C6002A"></path>
                <path d="M106.293565,35.7084932 C105.800093,35.7084932 105.456157,35.3806027 105.456157,34.9632877 C105.456157,34.3969315 106.039352,33.8752877 106.667187,33.8752877 C107.16066,33.8752877 107.504595,34.2183014 107.504595,34.6207123 C107.504595,35.1868493 106.9214,35.7084932 106.293565,35.7084932 Z M105.246806,45.0972055 L103.422674,45.0972055 L105.097269,37.0645479 L106.9214,37.0645479 L105.246806,45.0972055 L105.246806,45.0972055 Z" id="Fill-10" fill="#C6002A"></path>
                <path d="M110.988808,45.0972055 L109.269352,45.0972055 L108.297361,37.0645479 L110.196262,37.0645479 L110.540197,42.2656438 C110.585058,42.8469041 110.510509,43.3536438 110.510509,43.3536438 L110.540197,43.3536438 C110.540197,43.3536438 110.67478,42.8469041 110.9589,42.2656438 L113.485856,37.0645479 L115.250174,37.0645479 L110.988808,45.0972055" id="Fill-11" fill="#C6002A"></path>
                <path d="M119.362662,38.018411 C118.629931,38.018411 117.957234,38.4802192 117.493669,39.3448767 C117.284317,39.7472877 117.104873,40.2389041 116.985463,40.8201644 L120.454062,40.3134247 C120.529051,39.9855342 120.558958,39.6725479 120.558958,39.404274 C120.558958,38.4655342 120.125301,38.018411 119.362662,38.018411 Z M122.009468,41.043726 L116.940602,41.744 C116.820972,42.966137 117.179861,43.9943014 118.645104,43.9943014 C119.512199,43.9943014 120.319699,43.7260274 120.76831,43.5024658 L120.977442,44.6649863 C120.36456,44.9779726 119.392569,45.2460274 118.271262,45.2460274 C116.387095,45.2460274 115.191019,44.217863 115.191019,42.2656438 C115.191019,41.0733151 115.624676,39.6576438 116.297593,38.6888767 C117.074965,37.5712877 118.211447,36.915726 119.55706,36.915726 C121.201968,36.915726 122.188692,37.8693699 122.188692,39.6129315 C122.188692,40.0451507 122.128877,40.5220822 122.009468,41.043726 L122.009468,41.043726 Z" id="Fill-12" fill="#C6002A"></path>
                <path d="M127.721562,38.2717808 C127.0636,38.0780274 126.42059,38.0929315 126.01684,38.2864658 L124.611632,45.0972055 L122.78728,45.0972055 L124.357199,37.4967671 C125.104884,37.1539726 126.211238,36.915726 127.586979,36.915726 C127.885833,36.915726 128.110359,36.9306301 128.364352,36.9453151 L127.721562,38.2717808" id="Fill-13" fill="#C6002A"></path>
                <path d="M133.239259,38.4802192 C133,38.2717808 132.521481,38.1078356 132.013275,38.1078356 C131.220729,38.1078356 130.607627,38.704 130.607627,39.404274 C130.607627,40.7009315 133.060035,40.387726 133.060035,42.3103562 C133.060035,43.8303562 131.833831,45.2460274 129.620903,45.2460274 C128.768542,45.2460274 127.931134,44.9928767 127.497697,44.6649863 L128.185567,43.5471781 C128.43978,43.7409315 128.96316,43.9644932 129.620903,43.9644932 C130.532859,43.9644932 131.160914,43.2490959 131.160914,42.5190137 C131.160914,41.2076712 128.84331,41.5502466 128.84331,39.6280548 C128.84331,38.2717808 129.979792,36.915726 131.878692,36.915726 C132.731053,36.915726 133.388796,37.1390685 133.867315,37.4967671 L133.239259,38.4802192" id="Fill-14" fill="#C6002A"></path>
                <path d="M137.052674,35.7084932 C136.559201,35.7084932 136.215266,35.3806027 136.215266,34.9632877 C136.215266,34.3969315 136.798461,33.8752877 137.426296,33.8752877 C137.919769,33.8752877 138.263704,34.2183014 138.263704,34.6207123 C138.263704,35.1868493 137.680509,35.7084932 137.052674,35.7084932 Z M136.005914,45.0972055 L134.181782,45.0972055 L135.856377,37.0645479 L137.680509,37.0645479 L136.005914,45.0972055 L136.005914,45.0972055 Z" id="Fill-15" fill="#C6002A"></path>
                <path d="M143.048669,38.2121644 L141.732963,38.2121644 L140.760972,42.9361096 C140.731065,43.0704658 140.716111,43.2046027 140.716111,43.3089315 C140.716111,43.7111233 140.895556,43.9793973 141.389248,43.9793973 C141.553738,43.9793973 141.747917,43.9346849 141.867546,43.8899726 L141.628287,45.0226849 C141.448843,45.1121096 141.060266,45.2013151 140.656516,45.2013151 C139.370498,45.2013151 138.862072,44.4563288 138.862072,43.5471781 C138.862072,43.3536438 138.877245,43.1598904 138.922106,42.966137 L139.908831,38.2121644 L139.011609,38.2121644 L139.250868,37.0645479 L140.14809,37.0645479 L140.506979,35.2911781 L142.450741,34.7846575 L141.972222,37.0645479 L143.287928,37.0645479 L143.048669,38.2121644" id="Fill-16" fill="#C6002A"></path>
                <path d="M145.187269,48.3011507 L143.258461,48.3011507 L145.23213,45.0820822 L144.245405,37.0645479 L146.129132,37.0645479 L146.44338,42.2805479 C146.473287,42.9065205 146.398519,43.4130411 146.398519,43.4130411 L146.428426,43.4130411 C146.428426,43.4130411 146.563009,42.9065205 146.861863,42.2805479 L149.418727,37.0645479 L151.183264,37.0645479 L145.187269,48.3011507" id="Fill-17" fill="#C6002A"></path>
                <path d="M159.542384,38.0631233 C158.764792,38.0631233 158.226678,38.5996712 157.852836,39.389589 C157.464039,40.2090959 157.120324,41.6694795 157.120324,42.578411 C157.120324,43.3983562 157.389271,44.0092055 158.226678,44.0092055 C159.019225,44.0092055 159.542384,43.4728767 159.901273,42.6976438 C160.290069,41.8632329 160.619051,40.3730411 160.619051,39.4641096 C160.619051,38.6592877 160.364838,38.0631233 159.542384,38.0631233 Z M161.291748,43.4577534 C160.57419,44.5606575 159.512697,45.2460274 158.062187,45.2460274 C156.252789,45.2460274 155.355787,44.0839452 155.355787,42.4146849 C155.355787,41.2076712 155.774491,39.6874521 156.432454,38.6888767 C157.164965,37.5861918 158.256586,36.915726 159.677187,36.915726 C161.501319,36.915726 162.368414,38.0631233 162.368414,39.7472877 C162.368414,40.9393973 161.934757,42.4743014 161.291748,43.4577534 L161.291748,43.4577534 Z" id="Fill-18" fill="#C6002A"></path>
                <path d="M168.738912,34.5461918 C168.12581,34.5161644 167.363171,34.8591781 167.138866,35.9469589 L166.899606,37.0645479 L168.215532,37.0645479 L167.991227,38.2121644 L166.660567,38.2121644 L165.225012,45.0972055 L163.40088,45.0972055 L164.836435,38.2121644 L163.939213,38.2121644 L164.178252,37.0645479 L165.075694,37.0645479 L165.269873,36.0957808 C165.658669,34.1137534 167.079271,33.3687671 168.499653,33.3687671 C168.64919,33.3687671 168.813681,33.3836712 168.978171,33.3985753 L168.738912,34.5461918" id="Fill-19" fill="#C6002A"></path>
                <path d="M89.0708565,53.6874521 C88.2484028,53.6874521 87.5605324,54.1345753 87.0672801,54.9692055 C86.5738079,55.7887123 86.2597801,57.0553425 86.2597801,58.0241096 C86.2597801,59.1118904 86.7083912,59.7827945 87.7698843,59.7827945 C88.1888079,59.7827945 88.5476968,59.7080548 88.7717824,59.5888219 L89.9680787,53.8513973 C89.8185417,53.7768767 89.5192477,53.6874521 89.0708565,53.6874521 Z M90.4166898,60.3638356 C89.7886343,60.6768219 88.8465509,60.9448767 87.5605324,60.9448767 C85.5422222,60.9448767 84.4506019,59.8123836 84.4506019,58.0092055 C84.4506019,56.7425753 84.9440741,55.2223562 85.7364005,54.2389041 C86.5590741,53.2105205 87.7551505,52.6145753 89.3400231,52.6145753 C90.4166898,52.6145753 91.4034144,52.8826301 91.9116204,53.1956164 L90.4166898,60.3638356 L90.4166898,60.3638356 Z" id="Fill-20" fill="#C6002A"></path>
                <path d="M96.5474884,53.702137 C96.1439583,53.702137 95.8448843,53.7619726 95.5757176,53.8812055 L94.3646875,59.6931507 C94.5291782,59.7676712 94.7831713,59.8123836 95.1121528,59.8123836 C96.0542361,59.8123836 96.7867477,59.3205479 97.2953935,58.3964932 C97.7437847,57.5769863 98.0578125,56.2952329 98.0578125,55.3564932 C98.0578125,54.2985205 97.6241551,53.702137 96.5474884,53.702137 Z M98.7006019,59.1566027 C97.8933218,60.2893151 96.7119792,60.9152877 95.3366782,60.9152877 C94.8581597,60.9152877 94.3796412,60.8256438 94.1403819,60.7364384 L93.4525116,64 L91.6433333,64 L93.9011227,53.1956164 C94.6189005,52.8679452 95.5906713,52.6145753 96.7418866,52.6145753 C98.7006019,52.6145753 99.852037,53.6874521 99.852037,55.5353425 C99.852037,56.7425753 99.3884722,58.1880548 98.7006019,59.1566027 L98.7006019,59.1566027 Z" id="Fill-21" fill="#C6002A"></path>
                <path d="M104.816887,53.702137 C104.413137,53.702137 104.114282,53.7619726 103.845116,53.8812055 L102.633866,59.6931507 C102.798356,59.7676712 103.052569,59.8123836 103.381551,59.8123836 C104.323634,59.8123836 105.056146,59.3205479 105.564572,58.3964932 C106.012963,57.5769863 106.326991,56.2952329 106.326991,55.3564932 C106.326991,54.2985205 105.893333,53.702137 104.816887,53.702137 Z M106.97,59.1566027 C106.1625,60.2893151 104.981377,60.9152877 103.605856,60.9152877 C103.127338,60.9152877 102.649039,60.8256438 102.40978,60.7364384 L101.72191,64 L99.9125116,64 L102.170521,53.1956164 C102.888079,52.8679452 103.85985,52.6145753 105.011285,52.6145753 C106.97,52.6145753 108.121215,53.6874521 108.121215,55.5353425 C108.121215,56.7425753 107.65787,58.1880548 106.97,59.1566027 L106.97,59.1566027 Z" id="Fill-22" fill="#C6002A"></path>
                <polyline id="Fill-23" fill="#C6002A" points="110.708866 60.7960548 108.899468 60.7960548 111.336701 49.0974247 113.1461 49.0974247 110.708866 60.7960548"></polyline>
                <path d="M115.658322,51.4073425 C115.16485,51.4073425 114.820914,51.0794521 114.820914,50.662137 C114.820914,50.0957808 115.404109,49.574137 116.031944,49.574137 C116.525417,49.574137 116.869352,49.9171507 116.869352,50.3195616 C116.869352,50.8856986 116.286157,51.4073425 115.658322,51.4073425 Z M114.611562,60.7960548 L112.787431,60.7960548 L114.462025,52.7633973 L116.286157,52.7633973 L114.611562,60.7960548 L114.611562,60.7960548 Z" id="Fill-24" fill="#C6002A"></path>
                <path d="M121.22088,53.7172603 C120.488148,53.7172603 119.815231,54.1790685 119.351887,55.043726 C119.142535,55.4459178 118.96309,55.9377534 118.843241,56.5190137 L122.3125,56.012274 C122.387049,55.6843836 122.416956,55.3713973 122.416956,55.1031233 C122.416956,54.1643836 121.983299,53.7172603 121.22088,53.7172603 Z M123.867245,56.7425753 L118.7986,57.4428493 C118.67897,58.6649863 119.037859,59.6931507 120.503102,59.6931507 C121.370197,59.6931507 122.177697,59.4248767 122.626308,59.2013151 L122.83544,60.3638356 C122.222558,60.6768219 121.250567,60.9448767 120.129259,60.9448767 C118.245313,60.9448767 117.049236,59.9167123 117.049236,57.9644932 C117.049236,56.7721644 117.482894,55.3564932 118.15559,54.387726 C118.932963,53.270137 120.069444,52.6145753 121.415278,52.6145753 C123.059965,52.6145753 124.04669,53.5682192 124.04669,55.3117808 C124.04669,55.744 123.987095,56.2209315 123.867245,56.7425753 L123.867245,56.7425753 Z" id="Fill-25" fill="#C6002A"></path>
                <path d="M129.804086,53.6874521 C128.847049,53.6874521 128.159178,54.1941918 127.68088,54.9838904 C127.187627,55.7887123 126.87338,57.0553425 126.87338,58.0092055 C126.87338,59.0972055 127.321991,59.7827945 128.383704,59.7827945 C128.802188,59.7827945 129.161076,59.7080548 129.385602,59.5888219 L130.596412,53.7917808 C130.357373,53.7172603 130.088206,53.6874521 129.804086,53.6874521 Z M131.045243,60.3638356 C130.417188,60.6768219 129.46015,60.9448767 128.174352,60.9448767 C126.260498,60.9448767 125.064201,59.872 125.064201,57.9940822 C125.064201,56.7574795 125.54272,55.2819726 126.275451,54.3134247 C127.082731,53.2403288 128.233947,52.6592877 129.57978,52.6592877 C130.043345,52.6592877 130.50669,52.733589 130.79081,52.8232329 L131.568403,49.0974247 L133.377581,49.0974247 L131.045243,60.3638356 L131.045243,60.3638356 Z" id="Fill-26" fill="#C6002A"></path>
                <path d="M142.304942,54.1790685 C142.065683,53.9706301 141.587164,53.8066849 141.078738,53.8066849 C140.286412,53.8066849 139.67331,54.4028493 139.67331,55.1031233 C139.67331,56.3997808 142.125498,56.0865753 142.125498,58.0092055 C142.125498,59.5292055 140.899294,60.9448767 138.686586,60.9448767 C137.834225,60.9448767 136.996817,60.691726 136.56316,60.3638356 L137.25103,59.2460274 C137.505243,59.4397808 138.028403,59.6633425 138.686586,59.6633425 C139.598542,59.6633425 140.226377,58.9479452 140.226377,58.217863 C140.226377,56.9065205 137.908993,57.2490959 137.908993,55.3269041 C137.908993,53.9706301 139.045255,52.6145753 140.944155,52.6145753 C141.796516,52.6145753 142.454479,52.8379178 142.932998,53.1956164 L142.304942,54.1790685" id="Fill-27" fill="#C6002A"></path>
                <path d="M149.033669,54.1643836 C148.869398,54.0451507 148.525463,53.8364932 148.076852,53.8364932 C147.329167,53.8364932 146.701331,54.2538082 146.25272,55.0286027 C145.804329,55.7887123 145.520208,56.9808219 145.520208,57.8750685 C145.520208,58.9628493 145.953646,59.603726 146.746192,59.603726 C147.209537,59.603726 147.703229,59.4248767 147.957442,59.2311233 L148.15184,60.3638356 C147.777778,60.6768219 147.06022,60.9448767 146.207859,60.9448767 C144.682801,60.9448767 143.680903,59.7380822 143.680903,57.9048767 C143.680903,56.7127671 144.099606,55.2819726 144.772303,54.3134247 C145.550116,53.1809315 146.65647,52.6145753 147.807685,52.6145753 C148.675,52.6145753 149.392778,52.9424658 149.646771,53.1956164 L149.033669,54.1643836" id="Fill-28" fill="#C6002A"></path>
                <path d="M152.458507,51.4073425 C151.964815,51.4073425 151.6211,51.0794521 151.6211,50.662137 C151.6211,50.0957808 152.204074,49.574137 152.83213,49.574137 C153.325602,49.574137 153.669317,49.9171507 153.669317,50.3195616 C153.669317,50.8856986 153.086343,51.4073425 152.458507,51.4073425 Z M151.411748,60.7960548 L149.587616,60.7960548 L151.262211,52.7633973 L153.086343,52.7633973 L151.411748,60.7960548 L151.411748,60.7960548 Z" id="Fill-29" fill="#C6002A"></path>
                <path d="M158.020845,53.7172603 C157.288113,53.7172603 156.615417,54.1790685 156.151852,55.043726 C155.9425,55.4459178 155.763275,55.9377534 155.643426,56.5190137 L159.112465,56.012274 C159.187234,55.6843836 159.217141,55.3713973 159.217141,55.1031233 C159.217141,54.1643836 158.783484,53.7172603 158.020845,53.7172603 Z M160.667431,56.7425753 L155.598785,57.4428493 C155.479155,58.6649863 155.838044,59.6931507 157.303287,59.6931507 C158.170382,59.6931507 158.977882,59.4248767 159.426493,59.2013151 L159.635625,60.3638356 C159.022743,60.6768219 158.050752,60.9448767 156.929444,60.9448767 C155.045498,60.9448767 153.849421,59.9167123 153.849421,57.9644932 C153.849421,56.7721644 154.282859,55.3564932 154.955775,54.387726 C155.733148,53.270137 156.86963,52.6145753 158.215243,52.6145753 C159.86015,52.6145753 160.846875,53.5682192 160.846875,55.3117808 C160.846875,55.744 160.78728,56.2209315 160.667431,56.7425753 L160.667431,56.7425753 Z" id="Fill-30" fill="#C6002A"></path>
                <path d="M168.966736,55.1776438 L167.785394,60.7960548 L165.961262,60.7960548 L167.157338,55.1031233 C167.187245,54.9692055 167.202199,54.8348493 167.202199,54.7007123 C167.202199,54.1790685 166.873218,53.7619726 165.976215,53.7619726 C165.497697,53.7619726 165.049086,53.8364932 164.690417,53.9706301 L163.270035,60.7960548 L161.445683,60.7960548 L163.015602,53.1956164 C163.823102,52.8528219 164.974537,52.6145753 166.245382,52.6145753 C168.248958,52.6145753 169.026331,53.4489863 169.026331,54.5667945 C169.026331,54.7605479 169.011597,54.9692055 168.966736,55.1776438" id="Fill-31" fill="#C6002A"></path>
                <path d="M175.591007,54.1643836 C175.426736,54.0451507 175.082581,53.8364932 174.63397,53.8364932 C173.886505,53.8364932 173.258449,54.2538082 172.809838,55.0286027 C172.361447,55.7887123 172.077326,56.9808219 172.077326,57.8750685 C172.077326,58.9628493 172.510984,59.603726 173.30353,59.603726 C173.766875,59.603726 174.260347,59.4248767 174.51456,59.2311233 L174.708958,60.3638356 C174.335116,60.6768219 173.617338,60.9448767 172.764977,60.9448767 C171.240139,60.9448767 170.238241,59.7380822 170.238241,57.9048767 C170.238241,56.7127671 170.656725,55.2819726 171.329641,54.3134247 C172.107234,53.1809315 173.213588,52.6145753 174.365023,52.6145753 C175.232338,52.6145753 175.950116,52.9424658 176.204109,53.1956164 L175.591007,54.1643836" id="Fill-32" fill="#C6002A"></path>
                <path d="M180.421493,53.7172603 C179.688762,53.7172603 179.015845,54.1790685 178.5525,55.043726 C178.343148,55.4459178 178.163704,55.9377534 178.043854,56.5190137 L181.513113,56.012274 C181.587662,55.6843836 181.617569,55.3713973 181.617569,55.1031233 C181.617569,54.1643836 181.184132,53.7172603 180.421493,53.7172603 Z M183.067859,56.7425753 L177.999213,57.4428493 C177.879583,58.6649863 178.238472,59.6931507 179.703715,59.6931507 C180.57081,59.6931507 181.37831,59.4248767 181.826921,59.2013151 L182.036273,60.3638356 C181.423171,60.6768219 180.451181,60.9448767 179.329873,60.9448767 C177.445926,60.9448767 176.24985,59.9167123 176.24985,57.9644932 C176.24985,56.7721644 176.683507,55.3564932 177.356204,54.387726 C178.133576,53.270137 179.270058,52.6145753 180.615891,52.6145753 C182.260579,52.6145753 183.247303,53.5682192 183.247303,55.3117808 C183.247303,55.744 183.187708,56.2209315 183.067859,56.7425753 L183.067859,56.7425753 Z" id="Fill-33" fill="#C6002A"></path>
                <path d="M189.154016,54.1790685 C188.914757,53.9706301 188.436238,53.8066849 187.928032,53.8066849 C187.135486,53.8066849 186.522384,54.4028493 186.522384,55.1031233 C186.522384,56.3997808 188.974572,56.0865753 188.974572,58.0092055 C188.974572,59.5292055 187.748588,60.9448767 185.53566,60.9448767 C184.683299,60.9448767 183.845891,60.691726 183.412234,60.3638356 L184.100104,59.2460274 C184.354537,59.4397808 184.877697,59.6633425 185.53566,59.6633425 C186.447616,59.6633425 187.075671,58.9479452 187.075671,58.217863 C187.075671,56.9065205 184.757847,57.2490959 184.757847,55.3269041 C184.757847,53.9706301 185.894329,52.6145753 187.793229,52.6145753 C188.64559,52.6145753 189.303333,52.8379178 189.781852,53.1956164 L189.154016,54.1790685" id="Fill-34" fill="#C6002A"></path>
            </g>
        </g>
    </g>
</svg>